<?xml version="1.0" encoding="utf-8"?>
<svg version="1.1" baseProfile="full" width="300" height="300" xmlns="http://www.w3.org/2000/svg">
<style>
.bar {
	fill: black;
	stroke: #3365a3;
	stroke-width: 10%;
	stroke-linecap: round;
}
</style>
<!-- horizontal bars -->
<line class="bar" x1="10%" y1="20%" x2="40%" y2="20%" />
<line class="bar" x1="10%" y1="80%" x2="40%" y2="80%" />
<!-- vertical bar -->
<line class="bar" x1="10%" y1="20%" x2="10%" y2="80%" />
<!-- arrow shaft -->
<line class="bar" x1="30%" y1="50%" x2="80%" y2="50%" />
<!-- arrow head -->
<line class="bar" x1="60%" y1="35%" x2="80%" y2="50%" />
<line class="bar" x1="60%" y1="65%" x2="80%" y2="50%" />
</svg>
